M48
; DRILL file {KiCad 7.0.1} date Fri Nov 17 21:16:16 2023
; FORMAT={-:-/ absolute / metric / decimal}
; #@! TF.CreationDate,2023-11-17T21:16:16-06:00
; #@! TF.GenerationSoftware,Kicad,Pcbnew,7.0.1
; #@! TF.FileFunction,Plated,1,2,PTH
FMAT,2
METRIC
; #@! TA.AperFunction,Plated,PTH,ComponentDrill
T1C0.800
; #@! TA.AperFunction,Plated,PTH,ComponentDrill
T2C0.900
; #@! TA.AperFunction,Plated,PTH,ComponentDrill
T3C1.000
%
G90
G05
T1
X-70.62Y149.5
X-70.62Y99.5
X-70.62Y49.5
X-63.0Y149.5
X-63.0Y99.5
X-63.0Y49.5
X-60.62Y149.5
X-60.62Y99.5
X-60.62Y49.5
X-53.0Y149.5
X-53.0Y134.12
X-53.0Y126.5
X-53.0Y99.5
X-53.0Y84.12
X-53.0Y76.5
X-53.0Y49.5
X-53.0Y34.12
X-53.0Y26.5
X-53.0Y23.12
X-53.0Y15.5
X-53.0Y13.12
X-53.0Y5.5
X-47.0Y149.5
X-47.0Y134.12
X-47.0Y126.5
X-47.0Y99.5
X-47.0Y84.12
X-47.0Y76.5
X-47.0Y49.5
X-47.0Y34.12
X-47.0Y26.5
X-47.0Y13.12
X-47.0Y5.5
X-39.38Y149.5
X-39.38Y99.5
X-39.38Y49.5
X-37.0Y149.5
X-37.0Y99.5
X-37.0Y49.5
X-29.38Y149.5
X-29.38Y99.5
X-29.38Y49.5
T2
X-63.775Y126.5
X-63.775Y76.5
X-63.775Y26.5
X-63.775Y1.5
X-61.235Y126.5
X-61.235Y76.5
X-61.235Y26.5
X-61.235Y1.5
X-38.765Y126.5
X-38.765Y76.5
X-38.765Y26.5
X-36.225Y126.5
X-36.225Y76.5
X-36.225Y26.5
T3
X-61.5Y173.0
X-58.96Y173.0
X-56.42Y173.0
X-53.88Y173.0
X-53.0Y2.0
X-51.34Y173.0
X-50.46Y2.0
X-48.8Y173.0
X-47.92Y2.0
X-46.26Y173.0
X-45.38Y2.0
X-43.72Y173.0
X-42.84Y2.0
X-41.18Y173.0
X-40.3Y2.0
X-38.64Y173.0
X-37.76Y2.0
X-35.22Y2.0
T3
X-68.9Y164.15G85X-68.9Y165.85
G05
X-68.9Y139.15G85X-68.9Y140.85
G05
X-68.9Y114.15G85X-68.9Y115.85
G05
X-68.9Y89.15G85X-68.9Y90.85
G05
X-68.9Y64.15G85X-68.9Y65.85
G05
X-68.9Y39.15G85X-68.9Y40.85
G05
X-68.9Y14.15G85X-68.9Y15.85
G05
X-66.639Y157.159G85X-67.841Y158.361
G05
X-66.639Y132.159G85X-67.841Y133.361
G05
X-66.639Y107.159G85X-67.841Y108.361
G05
X-66.639Y82.159G85X-67.841Y83.361
G05
X-66.639Y57.159G85X-67.841Y58.361
G05
X-66.639Y32.159G85X-67.841Y33.361
G05
X-66.639Y7.159G85X-67.841Y8.361
G05
X-62.15Y168.9G85X-63.85Y168.9
G05
X-62.15Y143.9G85X-63.85Y143.9
G05
X-62.15Y118.9G85X-63.85Y118.9
G05
X-62.15Y93.9G85X-63.85Y93.9
G05
X-62.15Y68.9G85X-63.85Y68.9
G05
X-62.15Y43.9G85X-63.85Y43.9
G05
X-62.15Y18.9G85X-63.85Y18.9
G05
X-59.15Y156.1G85X-60.85Y156.1
G05
X-59.15Y131.1G85X-60.85Y131.1
G05
X-59.15Y106.1G85X-60.85Y106.1
G05
X-59.15Y81.1G85X-60.85Y81.1
G05
X-59.15Y56.1G85X-60.85Y56.1
G05
X-59.15Y31.1G85X-60.85Y31.1
G05
X-59.15Y6.1G85X-60.85Y6.1
G05
X-56.1Y161.15G85X-56.1Y162.85
G05
X-56.1Y136.15G85X-56.1Y137.85
G05
X-56.1Y111.15G85X-56.1Y112.85
G05
X-56.1Y86.15G85X-56.1Y87.85
G05
X-56.1Y61.15G85X-56.1Y62.85
G05
X-56.1Y36.15G85X-56.1Y37.85
G05
X-56.1Y11.15G85X-56.1Y12.85
G05
X-43.9Y164.15G85X-43.9Y165.85
G05
X-43.9Y139.15G85X-43.9Y140.85
G05
X-43.9Y114.15G85X-43.9Y115.85
G05
X-43.9Y89.15G85X-43.9Y90.85
G05
X-43.9Y64.15G85X-43.9Y65.85
G05
X-43.9Y39.15G85X-43.9Y40.85
G05
X-43.9Y14.15G85X-43.9Y15.85
G05
X-41.639Y157.159G85X-42.841Y158.361
G05
X-41.639Y132.159G85X-42.841Y133.361
G05
X-41.639Y107.159G85X-42.841Y108.361
G05
X-41.639Y82.159G85X-42.841Y83.361
G05
X-41.639Y57.159G85X-42.841Y58.361
G05
X-41.639Y32.159G85X-42.841Y33.361
G05
X-41.639Y7.159G85X-42.841Y8.361
G05
X-37.15Y168.9G85X-38.85Y168.9
G05
X-37.15Y143.9G85X-38.85Y143.9
G05
X-37.15Y118.9G85X-38.85Y118.9
G05
X-37.15Y93.9G85X-38.85Y93.9
G05
X-37.15Y68.9G85X-38.85Y68.9
G05
X-37.15Y43.9G85X-38.85Y43.9
G05
X-37.15Y18.9G85X-38.85Y18.9
G05
X-34.15Y156.1G85X-35.85Y156.1
G05
X-34.15Y131.1G85X-35.85Y131.1
G05
X-34.15Y106.1G85X-35.85Y106.1
G05
X-34.15Y81.1G85X-35.85Y81.1
G05
X-34.15Y56.1G85X-35.85Y56.1
G05
X-34.15Y31.1G85X-35.85Y31.1
G05
X-34.15Y6.1G85X-35.85Y6.1
G05
X-31.1Y161.15G85X-31.1Y162.85
G05
X-31.1Y136.15G85X-31.1Y137.85
G05
X-31.1Y111.15G85X-31.1Y112.85
G05
X-31.1Y86.15G85X-31.1Y87.85
G05
X-31.1Y61.15G85X-31.1Y62.85
G05
X-31.1Y36.15G85X-31.1Y37.85
G05
X-31.1Y11.15G85X-31.1Y12.85
G05
T0
M30
