M48
; DRILL file {KiCad 7.0.1} date Fri Nov 17 21:17:40 2023
; FORMAT={-:-/ absolute / metric / decimal}
; #@! TF.CreationDate,2023-11-17T21:17:40-06:00
; #@! TF.GenerationSoftware,Kicad,Pcbnew,7.0.1
; #@! TF.FileFunction,Plated,1,2,PTH
FMAT,2
METRIC
; #@! TA.AperFunction,Plated,PTH,ViaDrill
T1C0.400
; #@! TA.AperFunction,Plated,PTH,ComponentDrill
T2C0.800
; #@! TA.AperFunction,Plated,PTH,ComponentDrill
T3C1.000
; #@! TA.AperFunction,Plated,PTH,ComponentDrill
T4C1.016
; #@! TA.AperFunction,Plated,PTH,ComponentDrill
T5C1.100
%
G90
G05
T1
X-16.256Y161.544
X-14.732Y138.684
X-13.716Y137.668
X-11.684Y7.874
X-1.524Y82.296
X-1.524Y54.864
X-0.508Y42.164
X0.0Y55.88
X0.508Y128.524
X0.508Y44.704
X0.508Y17.78
X8.128Y101.092
X8.128Y86.36
X10.668Y127.0
X13.716Y19.304
X15.113Y156.337
T2
X-19.304Y152.908
X-19.304Y147.828
X-19.304Y131.064
X-19.304Y126.492
X-19.304Y121.92
X-19.304Y117.348
X-19.304Y107.188
X-19.304Y102.616
X-19.304Y98.044
X-19.304Y93.472
X-19.304Y80.772
X-19.304Y76.2
X-19.304Y22.86
X-19.264Y68.072
X-19.264Y33.528
X-16.764Y68.072
X-16.764Y33.528
X-14.224Y163.576
X-11.684Y163.576
X-11.684Y152.908
X-11.684Y147.828
X-11.684Y131.064
X-11.684Y126.492
X-11.684Y121.92
X-11.684Y117.348
X-11.684Y107.188
X-11.684Y102.616
X-11.684Y98.044
X-11.684Y93.472
X-11.684Y80.772
X-11.684Y76.2
X-11.684Y22.86
X-9.144Y163.576
X-9.104Y150.368
X-9.104Y25.405
X-8.636Y11.181
X-6.604Y163.576
X-6.604Y150.368
X-6.604Y25.405
X-6.096Y11.181
X-4.064Y163.576
X-3.8Y157.993
X-3.8Y155.453
X-3.8Y152.913
X-3.8Y150.373
X-3.8Y147.833
X-3.8Y145.293
X-3.8Y142.753
X-3.8Y132.588
X-3.8Y130.048
X-3.8Y127.508
X-3.8Y124.968
X-3.8Y122.428
X-3.8Y119.888
X-3.8Y117.348
X-3.8Y107.188
X-3.8Y104.648
X-3.8Y102.108
X-3.8Y99.568
X-3.8Y97.028
X-3.8Y94.488
X-3.8Y91.948
X-3.8Y58.425
X-3.8Y55.885
X-3.8Y53.345
X-3.8Y50.805
X-3.8Y48.265
X-3.8Y45.725
X-3.8Y43.185
X-3.8Y33.025
X-3.8Y30.485
X-3.8Y27.945
X-3.8Y25.405
X-3.8Y22.865
X-3.8Y20.325
X-3.8Y17.785
X-3.556Y11.181
X-1.524Y163.576
X-1.016Y11.181
X1.016Y163.576
X1.524Y11.181
X3.556Y163.576
X3.82Y157.993
X3.82Y155.453
X3.82Y152.913
X3.82Y150.373
X3.82Y147.833
X3.82Y145.293
X3.82Y142.753
X3.82Y132.588
X3.82Y130.048
X3.82Y127.508
X3.82Y124.968
X3.82Y122.428
X3.82Y119.888
X3.82Y117.348
X3.82Y107.188
X3.82Y104.648
X3.82Y102.108
X3.82Y99.568
X3.82Y97.028
X3.82Y94.488
X3.82Y91.948
X3.82Y58.425
X3.82Y55.885
X3.82Y53.345
X3.82Y50.805
X3.82Y48.265
X3.82Y45.725
X3.82Y43.185
X3.82Y33.025
X3.82Y30.485
X3.82Y27.945
X3.82Y25.405
X3.82Y22.865
X3.82Y20.325
X3.82Y17.785
X4.064Y11.181
X6.096Y163.576
X6.604Y150.368
X6.604Y132.588
X6.604Y107.188
X6.604Y58.425
X6.604Y55.925
X6.604Y11.181
X7.62Y25.405
X8.636Y163.576
X9.104Y150.368
X9.104Y132.588
X9.104Y107.188
X9.144Y11.181
X10.12Y25.405
X11.176Y163.576
X11.684Y152.908
X11.684Y147.828
X11.684Y102.108
X11.684Y97.536
X11.684Y57.917
X11.684Y53.345
X11.684Y47.757
X11.684Y43.185
X11.684Y27.94
X11.684Y22.86
X11.684Y11.181
X13.716Y163.576
X19.304Y152.908
X19.304Y147.828
X19.304Y102.108
X19.304Y97.536
X19.304Y57.917
X19.304Y53.345
X19.304Y47.757
X19.304Y43.185
X19.304Y27.94
X19.304Y22.86
T3
X-11.5Y173.0
X-8.96Y173.0
X-6.42Y173.0
X-3.88Y173.0
X-3.0Y2.0
X-1.34Y173.0
X-0.46Y2.0
X1.2Y173.0
X2.08Y2.0
X3.74Y173.0
X4.62Y2.0
X6.28Y173.0
X7.16Y2.0
X8.82Y173.0
X9.7Y2.0
X11.36Y173.0
X12.24Y2.0
X14.78Y2.0
T4
X-19.304Y55.88
X-19.304Y53.34
X-19.304Y50.8
X-19.304Y48.26
X-19.304Y45.72
X-16.764Y55.88
X-16.764Y53.34
X-16.764Y50.8
X-16.764Y48.26
X-16.764Y45.72
T5
X-11.176Y66.04
X-11.176Y55.88
X-11.176Y45.72
X-11.176Y35.56
T0
M30
